Calculate point estimates and errors — calcPtEst • svywrangler
…
      na.rm
      remove NAs from the mean or not

      ci_factor
      value to calculate confidence interval; in standard deviations. 1.96 standard deviations --> ~ 95 percent of the area under a normal gaussian distribution

    Examples

# Generate simple random data to average
df = data.frame(region = rep(letters, 100), value = sample(100, 2600, replace = TRUE))

calcPtEst(df, 'value', by_var = 'region', use_weights = FALSE)
#> # A tibble: 26 x 7
#>    region     N unweighted_avg unweighted_sd       ci       ub       lb
#>    <fctr> <int>          <dbl>         <dbl>    <dbl>    <dbl>    <dbl>
#>  1      o   100          55.85      28.72031 5.744061 61.59406 50.10594
#>  2      y   100          54.49      27.07099 5.414197 59.90420 49.07580
#>  3      b   100          53.92      29.90344 5.980688 59.90069 47.93931
#>  4      e   100          53.79      27.96581 5.593163 59.38316 48.19684
#>  5      t   100          53.55      30.44564 6.089128 59.63913 47.46087
#>  6      r   100          53.31      29.17024 5.834048 59.14405 47.47595
#>  7      x   100          52.99      27.87291 5.574581 58.56458 47.41542
#>  8      d   100          52.34      29.30723 5.861445 58.20145 46.47855
#>  9      l   100          51.76      30.14581 6.029163 57.78916 45.73084
#> 10      v   100          51.75      29.66015 5.932031 57.68203 45.81797
#> # ... with 16 more rows
…
